Lab 05: Harvesting research data
…
Warning: NAs introduced by coercion

all_text <- substr(all_text,4,nchar(all_text))

acquired_data_tbl <- tibble(
  Speaker_id = speaker_vector,
  Sentence_id = sentence_vector,
  Utterance_id = utterance_vector,
  Utterance = all_text 
)

print(acquired_data_tbl)

# A tibble: 224,012 × 4
   Speaker_id Sentence_id Utterance_id Utterance                                
   <chr>            <int>        <int> <chr>                                    
 1 A                    1            1 Okay.                                    
 2 A                    1            2 {D So, }                                 
 3 B                    2            1 [ [ I guess, +                           
 4 A                    3            1 What kind of experience [ do you, + do y…
 5 B                    4            1 I think, ] + {F uh, } I wonder ] if that…
 6 A                    5            1 Does it say something?                   
 7 B                    6            1 I think it usually does.                 
 8 B                    6            2 You might try, {F uh, }                  
 9 B                    6            3 I don't know,                            
10 B                    6            4 hold it down a little longer,            
# ℹ 224,002 more rows
…
